…
    - What is the time interval of each series?

    - gafa_stock is Business Daily

    - PBS is monthly

    - vic_elec is hourly (every other hour)

    - pelt is yearly

``` r
gafa_stock
```

    ## # A tsibble: 5,032 x 8 [!]
    ## # Key:       Symbol [4]
    ##    Symbol Date        Open  High   Low Close Adj_Close    Volume
    ##    <chr>  <date>     <dbl> <dbl> <dbl> <dbl>     <dbl>     <dbl>
    ##  1 AAPL   2014-01-02  79.4  79.6  78.9  79.0      67.0  58671200
    ##  2 AAPL   2014-01-03  79.0  79.1  77.2  77.3      65.5  98116900
    ##  3 AAPL   2014-01-06  76.8  78.1  76.2  77.7      65.9 103152700
    ##  4 AAPL   2014-01-07  77.8  78.0  76.8  77.1      65.4  79302300
    ##  5 AAPL   2014-01-08  77.0  77.9  77.0  77.6      65.8  64632400
    ##  6 AAPL   2014-01-09  78.1  78.1  76.5  76.6      65.0  69787200
    ##  7 AAPL   2014-01-10  77.1  77.3  75.9  76.1      64.5  76244000
    ##  8 AAPL   2014-01-13  75.7  77.5  75.7  76.5      64.9  94623200
    ##  9 AAPL   2014-01-14  76.9  78.1  76.8  78.1      66.1  83140400
    ## 10 AAPL   2014-01-15  79.1  80.0  78.8  79.6      67.5  97909700
    ## # … with 5,022 more rows
…
``` r
PBS
```

    ## # A tsibble: 67,596 x 9 [1M]
    ## # Key:       Concession, Type, ATC1, ATC2 [336]
    ##       Month Concession   Type        ATC1  ATC1_desc ATC2  ATC2_…¹ Scripts  Cost
    ##       <mth> <chr>        <chr>       <chr> <chr>     <chr> <chr>     <dbl> <dbl>
    ##  1 1991 Jul Concessional Co-payments A     Alimenta… A01   STOMAT…   18228 67877
    ##  2 1991 Aug Concessional Co-payments A     Alimenta… A01   STOMAT…   15327 57011
    ##  3 1991 Sep Concessional Co-payments A     Alimenta… A01   STOMAT…   14775 55020
    ##  4 1991 Oct Concessional Co-payments A     Alimenta… A01   STOMAT…   15380 57222
    ##  5 1991 Nov Concessional Co-payments A     Alimenta… A01   STOMAT…   14371 52120
    ##  6 1991 Dec Concessional Co-payments A     Alimenta… A01   STOMAT…   15028 54299
    ##  7 1992 Jan Concessional Co-payments A     Alimenta… A01   STOMAT…   11040 39753
    ##  8 1992 Feb Concessional Co-payments A     Alimenta… A01   STOMAT…   15165 54405
    ##  9 1992 Mar Concessional Co-payments A     Alimenta… A01   STOMAT…   16898 61108
    ## 10 1992 Apr Concessional Co-payments A     Alimenta… A01   STOMAT…   18141 65356
    ## # … with 67,586 more rows, and abbreviated variable name ¹​ATC2_desc
…
``` r
vic_elec
```

    ## # A tsibble: 52,608 x 5 [30m] <Australia/Melbourne>
    ##    Time                Demand Temperature Date       Holiday
    ##    <dttm>               <dbl>       <dbl> <date>     <lgl>  
    ##  1 2012-01-01 00:00:00  4383.        21.4 2012-01-01 TRUE   
    ##  2 2012-01-01 00:30:00  4263.        21.0 2012-01-01 TRUE   
    ##  3 2012-01-01 01:00:00  4049.        20.7 2012-01-01 TRUE   
    ##  4 2012-01-01 01:30:00  3878.        20.6 2012-01-01 TRUE   
    ##  5 2012-01-01 02:00:00  4036.        20.4 2012-01-01 TRUE   
    ##  6 2012-01-01 02:30:00  3866.        20.2 2012-01-01 TRUE   
    ##  7 2012-01-01 03:00:00  3694.        20.1 2012-01-01 TRUE   
    ##  8 2012-01-01 03:30:00  3562.        19.6 2012-01-01 TRUE   
    ##  9 2012-01-01 04:00:00  3433.        19.1 2012-01-01 TRUE   
    ## 10 2012-01-01 04:30:00  3359.        19.0 2012-01-01 TRUE   
    ## # … with 52,598 more rows
…
``` r
pelt
```

    ## # A tsibble: 91 x 3 [1Y]
    ##     Year  Hare  Lynx
    ##    <dbl> <dbl> <dbl>
    ##  1  1845 19580 30090
    ##  2  1846 19600 45150
    ##  3  1847 19610 49150
    ##  4  1848 11990 39520
    ##  5  1849 28040 21230
    ##  6  1850 58000  8420
    ##  7  1851 74600  5560
    ##  8  1852 75090  5080
    ##  9  1853 88480 10170
    ## 10  1854 61280 19600
    ## # … with 81 more rows
…
