…
If we want to model GDP per capita over time we must first compute the
variable

``` r
gdppc <- global_economy |>
  mutate(GDP_per_capita = GDP / Population)
gdppc
```

    ## # A tsibble: 15,150 x 10 [1Y]
    ## # Key:       Country [263]
    ##    Country     Code   Year      GDP Growth   CPI Imports Exports Popul…¹ GDP_p…²
    ##    <fct>       <fct> <dbl>    <dbl>  <dbl> <dbl>   <dbl>   <dbl>   <dbl>   <dbl>
    ##  1 Afghanistan AFG    1960   5.38e8     NA    NA    7.02    4.13  9.00e6    59.8
    ##  2 Afghanistan AFG    1961   5.49e8     NA    NA    8.10    4.45  9.17e6    59.9
    ##  3 Afghanistan AFG    1962   5.47e8     NA    NA    9.35    4.88  9.35e6    58.5
    ##  4 Afghanistan AFG    1963   7.51e8     NA    NA   16.9     9.17  9.53e6    78.8
    ##  5 Afghanistan AFG    1964   8.00e8     NA    NA   18.1     8.89  9.73e6    82.2
    ##  6 Afghanistan AFG    1965   1.01e9     NA    NA   21.4    11.3   9.94e6   101. 
    ##  7 Afghanistan AFG    1966   1.40e9     NA    NA   18.6     8.57  1.02e7   138. 
    ##  8 Afghanistan AFG    1967   1.67e9     NA    NA   14.2     6.77  1.04e7   161. 
    ##  9 Afghanistan AFG    1968   1.37e9     NA    NA   15.2     8.90  1.06e7   130. 
    ## 10 Afghanistan AFG    1969   1.41e9     NA    NA   15.0    10.1   1.09e7   130. 
    ## # … with 15,140 more rows, and abbreviated variable names ¹​Population,
    ## #   ²​GDP_per_capita
…
``` r
fit <- gdppc |>
  model(trend_model = TSLM(GDP_per_capita ~ trend()))
```

    ## Warning: 7 errors (1 unique) encountered for trend_model
    ## [7] 0 (non-NA) cases

``` r
fit
```

    ## # A mable: 263 x 2
    ## # Key:     Country [263]
    ##    Country             trend_model
    ##    <fct>                   <model>
    ##  1 Afghanistan              <TSLM>
    ##  2 Albania                  <TSLM>
    ##  3 Algeria                  <TSLM>
    ##  4 American Samoa           <TSLM>
    ##  5 Andorra                  <TSLM>
    ##  6 Angola                   <TSLM>
    ##  7 Antigua and Barbuda      <TSLM>
    ##  8 Arab World               <TSLM>
    ##  9 Argentina                <TSLM>
    ## 10 Armenia                  <TSLM>
    ## # … with 253 more rows
…
In other situations, it may be more convenient to provide a dataset of
future time periods to forecast. This is commonly required when your
model uses additional information from the data, such as exogenous
regressors. Additional data required by the model can be included in the
dataset of observations to forecast.

``` r
fit |> forecast(h = "3 years")
```

    ## # A fable: 789 x 5 [1Y]
    ## # Key:     Country, .model [263]
    ##    Country        .model       Year   GDP_per_capita  .mean
    ##    <fct>          <chr>       <dbl>           <dist>  <dbl>
    ##  1 Afghanistan    trend_model  2018     N(526, 9653)   526.
    ##  2 Afghanistan    trend_model  2019     N(534, 9689)   534.
    ##  3 Afghanistan    trend_model  2020     N(542, 9727)   542.
    ##  4 Albania        trend_model  2018  N(4716, 476419)  4716.
    ##  5 Albania        trend_model  2019  N(4867, 481086)  4867.
    ##  6 Albania        trend_model  2020  N(5018, 486012)  5018.
    ##  7 Algeria        trend_model  2018  N(4410, 643094)  4410.
    ##  8 Algeria        trend_model  2019  N(4489, 645311)  4489.
    ##  9 Algeria        trend_model  2020  N(4568, 647602)  4568.
    ## 10 American Samoa trend_model  2018 N(12491, 652926) 12491.
    ## # … with 779 more rows
…
To illustrate them, we will use quarterly Australian clay brick
production between 1970 and 2004.

The `filter_index()` function is a convenient shorthand for extracting a
section of a time series.

``` r
bricks <- aus_production |>
  filter_index("1970 Q1" ~ "2004 Q4") |>
  select(Bricks)
bricks
```

    ## # A tsibble: 140 x 2 [1Q]
    ##    Bricks Quarter
    ##     <dbl>   <qtr>
    ##  1    386 1970 Q1
    ##  2    428 1970 Q2
    ##  3    434 1970 Q3
    ##  4    417 1970 Q4
    ##  5    385 1971 Q1
    ##  6    433 1971 Q2
    ##  7    453 1971 Q3
    ##  8    436 1971 Q4
    ##  9    399 1972 Q1
    ## 10    461 1972 Q2
    ## # … with 130 more rows
…
### Re-index based on trading days

``` r
google_stock <- gafa_stock |>
  filter(Symbol == "GOOG", year(Date) >= 2015) |>
  mutate(day = row_number()) |>
  update_tsibble(index = day, regular = TRUE)
google_stock
```

    ## # A tsibble: 1,006 x 9 [1]
    ## # Key:       Symbol [1]
    ##    Symbol Date        Open  High   Low Close Adj_Close  Volume   day
    ##    <chr>  <date>     <dbl> <dbl> <dbl> <dbl>     <dbl>   <dbl> <int>
    ##  1 GOOG   2015-01-02  526.  528.  521.  522.      522. 1447600     1
    ##  2 GOOG   2015-01-05  520.  521.  510.  511.      511. 2059800     2
    ##  3 GOOG   2015-01-06  512.  513.  498.  499.      499. 2899900     3
    ##  4 GOOG   2015-01-07  504.  504.  497.  498.      498. 2065100     4
    ##  5 GOOG   2015-01-08  495.  501.  488.  500.      500. 3353600     5
    ##  6 GOOG   2015-01-09  502.  502.  492.  493.      493. 2069400     6
    ##  7 GOOG   2015-01-12  492.  493.  485.  490.      490. 2322400     7
    ##  8 GOOG   2015-01-13  496.  500.  490.  493.      493. 2370500     8
    ##  9 GOOG   2015-01-14  492.  500.  490.  498.      498. 2235700     9
    ## 10 GOOG   2015-01-15  503.  503.  495.  499.      499. 2715800    10
    ## # … with 996 more rows

### Filter the year of interest

``` r
google_2015 <- google_stock |> filter(year(Date) == 2015)
google_2015
```

    ## # A tsibble: 252 x 9 [1]
    ## # Key:       Symbol [1]
    ##    Symbol Date        Open  High   Low Close Adj_Close  Volume   day
    ##    <chr>  <date>     <dbl> <dbl> <dbl> <dbl>     <dbl>   <dbl> <int>
    ##  1 GOOG   2015-01-02  526.  528.  521.  522.      522. 1447600     1
    ##  2 GOOG   2015-01-05  520.  521.  510.  511.      511. 2059800     2
    ##  3 GOOG   2015-01-06  512.  513.  498.  499.      499. 2899900     3
    ##  4 GOOG   2015-01-07  504.  504.  497.  498.      498. 2065100     4
    ##  5 GOOG   2015-01-08  495.  501.  488.  500.      500. 3353600     5
    ##  6 GOOG   2015-01-09  502.  502.  492.  493.      493. 2069400     6
    ##  7 GOOG   2015-01-12  492.  493.  485.  490.      490. 2322400     7
    ##  8 GOOG   2015-01-13  496.  500.  490.  493.      493. 2370500     8
    ##  9 GOOG   2015-01-14  492.  500.  490.  498.      498. 2235700     9
    ## 10 GOOG   2015-01-15  503.  503.  495.  499.      499. 2715800    10
    ## # … with 242 more rows
…
The fitted values and residuals from a model can be obtained using the
**`augment()`** function. In the beer production example in Section 5.2,
we saved the fitted models as beer_fit. So we can simply apply augment()
to this object to compute the fitted values and residuals for all
models.

``` r
augment(beer_fit)
```

    ## # A tsibble: 180 x 6 [1Q]
    ## # Key:       .model [3]
    ##    .model Quarter  Beer .fitted .resid .innov
    ##    <chr>    <qtr> <dbl>   <dbl>  <dbl>  <dbl>
    ##  1 Mean   1992 Q1   443    436.   6.55   6.55
    ##  2 Mean   1992 Q2   410    436. -26.4  -26.4 
    ##  3 Mean   1992 Q3   420    436. -16.4  -16.4 
    ##  4 Mean   1992 Q4   532    436.  95.6   95.6 
    ##  5 Mean   1993 Q1   433    436.  -3.45  -3.45
    ##  6 Mean   1993 Q2   421    436. -15.4  -15.4 
    ##  7 Mean   1993 Q3   410    436. -26.4  -26.4 
    ##  8 Mean   1993 Q4   512    436.  75.6   75.6 
    ##  9 Mean   1994 Q1   449    436.  12.6   12.6 
    ## 10 Mean   1994 Q2   381    436. -55.4  -55.4 
    ## # … with 170 more rows
…
$$y_{T+2} = \hat{y}_{T+2|T+1} + e_{T+2}$$

Doing this repeatedly, we obtain many possible futures. To see some of
them, we can use the `generate()` function.

``` r
fit <- google_2015 |>
  model(NAIVE(Close))
sim <- fit |> generate(h = 30,
                       times = 5,
                       bootstrap = TRUE)
sim
```

    ## # A tsibble: 150 x 5 [1]
    ## # Key:       Symbol, .model, .rep [5]
    ##    Symbol .model         day .rep   .sim
    ##    <chr>  <chr>        <dbl> <chr> <dbl>
    ##  1 GOOG   NAIVE(Close)   253 1      765.
    ##  2 GOOG   NAIVE(Close)   254 1      757.
    ##  3 GOOG   NAIVE(Close)   255 1      760.
    ##  4 GOOG   NAIVE(Close)   256 1      756.
    ##  5 GOOG   NAIVE(Close)   257 1      750.
    ##  6 GOOG   NAIVE(Close)   258 1      747.
    ##  7 GOOG   NAIVE(Close)   259 1      758.
    ##  8 GOOG   NAIVE(Close)   260 1      768.
    ##  9 GOOG   NAIVE(Close)   261 1      776.
    ## 10 GOOG   NAIVE(Close)   262 1      774.
    ## # … with 140 more rows
…
Then we can compute prediction intervals by calculating percentiles of
the future sample paths for each forecast horizon. The result is called
a bootstrapped prediction interval. The name “bootstrap” is a reference
to pulling ourselves up by our bootstraps, because the process allows us
to measure future uncertainty by only using the historical data.

This is all built into the `forecast()` function so you do not need to
call `generate()` directly.

``` r
fc <- fit |> forecast(h = 30, bootstrap = TRUE)
fc
```

    ## # A fable: 30 x 5 [1]
    ## # Key:     Symbol, .model [1]
    ##    Symbol .model         day        Close .mean
    ##    <chr>  <chr>        <dbl>       <dist> <dbl>
    ##  1 GOOG   NAIVE(Close)   253 sample[5000]  759.
    ##  2 GOOG   NAIVE(Close)   254 sample[5000]  759.
    ##  3 GOOG   NAIVE(Close)   255 sample[5000]  759.
    ##  4 GOOG   NAIVE(Close)   256 sample[5000]  759.
    ##  5 GOOG   NAIVE(Close)   257 sample[5000]  759.
    ##  6 GOOG   NAIVE(Close)   258 sample[5000]  759.
    ##  7 GOOG   NAIVE(Close)   259 sample[5000]  759.
    ##  8 GOOG   NAIVE(Close)   260 sample[5000]  758.
    ##  9 GOOG   NAIVE(Close)   261 sample[5000]  759.
    ## 10 GOOG   NAIVE(Close)   262 sample[5000]  759.
    ## # … with 20 more rows
…
