…
If we want to model GDP per capita over time we must first compute the
variable

``` r
gdppc <- global_economy |>
  mutate(GDP_per_capita = GDP / Population)
gdppc
```

    ## # A tsibble: 15,150 x 10 [1Y]
    ## # Key:       Country [263]
    ##    Country     Code   Year      GDP Growth   CPI Imports Exports Popul…¹ GDP_p…²
    ##    <fct>       <fct> <dbl>    <dbl>  <dbl> <dbl>   <dbl>   <dbl>   <dbl>   <dbl>
    ##  1 Afghanistan AFG    1960   5.38e8     NA    NA    7.02    4.13  9.00e6    59.8
    ##  2 Afghanistan AFG    1961   5.49e8     NA    NA    8.10    4.45  9.17e6    59.9
    ##  3 Afghanistan AFG    1962   5.47e8     NA    NA    9.35    4.88  9.35e6    58.5
    ##  4 Afghanistan AFG    1963   7.51e8     NA    NA   16.9     9.17  9.53e6    78.8
    ##  5 Afghanistan AFG    1964   8.00e8     NA    NA   18.1     8.89  9.73e6    82.2
    ##  6 Afghanistan AFG    1965   1.01e9     NA    NA   21.4    11.3   9.94e6   101. 
    ##  7 Afghanistan AFG    1966   1.40e9     NA    NA   18.6     8.57  1.02e7   138. 
    ##  8 Afghanistan AFG    1967   1.67e9     NA    NA   14.2     6.77  1.04e7   161. 
    ##  9 Afghanistan AFG    1968   1.37e9     NA    NA   15.2     8.90  1.06e7   130. 
    ## 10 Afghanistan AFG    1969   1.41e9     NA    NA   15.0    10.1   1.09e7   130. 
    ## # … with 15,140 more rows, and abbreviated variable names ¹​Population,
    ## #   ²​GDP_per_capita
…
``` r
fit <- gdppc |>
  model(trend_model = TSLM(GDP_per_capita ~ trend()))
```

    ## Warning: 7 errors (1 unique) encountered for trend_model
    ## [7] 0 (non-NA) cases

``` r
fit
```

    ## # A mable: 263 x 2
    ## # Key:     Country [263]
    ##    Country             trend_model
    ##    <fct>                   <model>
    ##  1 Afghanistan              <TSLM>
    ##  2 Albania                  <TSLM>
    ##  3 Algeria                  <TSLM>
    ##  4 American Samoa           <TSLM>
    ##  5 Andorra                  <TSLM>
    ##  6 Angola                   <TSLM>
    ##  7 Antigua and Barbuda      <TSLM>
    ##  8 Arab World               <TSLM>
    ##  9 Argentina                <TSLM>
    ## 10 Armenia                  <TSLM>
    ## # … with 253 more rows
…
In other situations, it may be more convenient to provide a dataset of
future time periods to forecast. This is commonly required when your
model uses additional information from the data, such as exogenous
regressors. Additional data required by the model can be included in the
dataset of observations to forecast.

``` r
fit |> forecast(h = "3 years")
```

    ## # A fable: 789 x 5 [1Y]
    ## # Key:     Country, .model [263]
    ##    Country        .model       Year   GDP_per_capita  .mean
    ##    <fct>          <chr>       <dbl>           <dist>  <dbl>
    ##  1 Afghanistan    trend_model  2018     N(526, 9653)   526.
    ##  2 Afghanistan    trend_model  2019     N(534, 9689)   534.
    ##  3 Afghanistan    trend_model  2020     N(542, 9727)   542.
    ##  4 Albania        trend_model  2018  N(4716, 476419)  4716.
    ##  5 Albania        trend_model  2019  N(4867, 481086)  4867.
    ##  6 Albania        trend_model  2020  N(5018, 486012)  5018.
    ##  7 Algeria        trend_model  2018  N(4410, 643094)  4410.
    ##  8 Algeria        trend_model  2019  N(4489, 645311)  4489.
    ##  9 Algeria        trend_model  2020  N(4568, 647602)  4568.
    ## 10 American Samoa trend_model  2018 N(12491, 652926) 12491.
    ## # … with 779 more rows
…
