…
``` r
library(tsibble)
```

# `autoplot()`

``` r
ansett
```

    ## # A tsibble: 7,407 x 4 [1W]
    ## # Key:       Airports, Class [30]
    ##        Week Airports Class    Passengers
    ##      <week> <chr>    <chr>         <dbl>
    ##  1 1989 W28 ADL-PER  Business        193
    ##  2 1989 W29 ADL-PER  Business        254
    ##  3 1989 W30 ADL-PER  Business        185
    ##  4 1989 W31 ADL-PER  Business        254
    ##  5 1989 W32 ADL-PER  Business        191
    ##  6 1989 W33 ADL-PER  Business        136
    ##  7 1989 W34 ADL-PER  Business          0
    ##  8 1989 W35 ADL-PER  Business          0
    ##  9 1989 W36 ADL-PER  Business          0
    ## 10 1989 W37 ADL-PER  Business          0
    ## # … with 7,397 more rows
…
Useful for identifying Years with with unusual patterns. In this case we
see 2008 dipping lower than usual in March 2008. The low figure in June
could be the result of incomplete data.

## Multiple seasonal periods

`period` can be used for data with multiple seasonal patterns by
specifying daily, weekly or yearly patterns

``` r
vic_elec
```

    ## # A tsibble: 52,608 x 5 [30m] <Australia/Melbourne>
    ##    Time                Demand Temperature Date       Holiday
    ##    <dttm>               <dbl>       <dbl> <date>     <lgl>  
    ##  1 2012-01-01 00:00:00  4383.        21.4 2012-01-01 TRUE   
    ##  2 2012-01-01 00:30:00  4263.        21.0 2012-01-01 TRUE   
    ##  3 2012-01-01 01:00:00  4049.        20.7 2012-01-01 TRUE   
    ##  4 2012-01-01 01:30:00  3878.        20.6 2012-01-01 TRUE   
    ##  5 2012-01-01 02:00:00  4036.        20.4 2012-01-01 TRUE   
    ##  6 2012-01-01 02:30:00  3866.        20.2 2012-01-01 TRUE   
    ##  7 2012-01-01 03:00:00  3694.        20.1 2012-01-01 TRUE   
    ##  8 2012-01-01 03:30:00  3562.        19.6 2012-01-01 TRUE   
    ##  9 2012-01-01 04:00:00  3433.        19.1 2012-01-01 TRUE   
    ## 10 2012-01-01 04:30:00  3359.        19.0 2012-01-01 TRUE   
    ## # … with 52,598 more rows
…
This plot collects each season into seperate mini time plots. The blue
line indicates the mean. This plot is useful to clearly view the
underlying seasonal pattern and shows the changes in seasonality over
time. In this case it is not very interesting.

## Example: Australian holiday tourism

``` r
tourism
```

    ## # A tsibble: 24,320 x 5 [1Q]
    ## # Key:       Region, State, Purpose [304]
    ##    Quarter Region   State           Purpose  Trips
    ##      <qtr> <chr>    <chr>           <chr>    <dbl>
    ##  1 1998 Q1 Adelaide South Australia Business  135.
    ##  2 1998 Q2 Adelaide South Australia Business  110.
    ##  3 1998 Q3 Adelaide South Australia Business  166.
    ##  4 1998 Q4 Adelaide South Australia Business  127.
    ##  5 1999 Q1 Adelaide South Australia Business  137.
    ##  6 1999 Q2 Adelaide South Australia Business  200.
    ##  7 1999 Q3 Adelaide South Australia Business  169.
    ##  8 1999 Q4 Adelaide South Australia Business  134.
    ##  9 2000 Q1 Adelaide South Australia Business  154.
    ## 10 2000 Q2 Adelaide South Australia Business  169.
    ## # … with 24,310 more rows

Lets consider the total visitor nights on holiday for each quarter.

``` r
holidays <- tourism |>
  filter(Purpose == "Holiday") |>
  group_by(State) |>
  summarise(Trips = sum(Trips))
holidays
```

    ## # A tsibble: 640 x 3 [1Q]
    ## # Key:       State [8]
    ##    State Quarter Trips
    ##    <chr>   <qtr> <dbl>
    ##  1 ACT   1998 Q1  196.
    ##  2 ACT   1998 Q2  127.
    ##  3 ACT   1998 Q3  111.
    ##  4 ACT   1998 Q4  170.
    ##  5 ACT   1999 Q1  108.
    ##  6 ACT   1999 Q2  125.
    ##  7 ACT   1999 Q3  178.
    ##  8 ACT   1999 Q4  218.
    ##  9 ACT   2000 Q1  158.
    ## 10 ACT   2000 Q2  155.
    ## # … with 630 more rows
…
